…
Join together
-------------

For the first part of the lecture, we are going to work a tad on some more joining operation.

The package `singer` comes with two smallish dataframe about songs and artists. Let's take a look at them

``` r
library(singer)
data("songs")
songs
```

    ## # A tibble: 22 x 3
    ##    title                            artist_name      year
    ##    <chr>                            <chr>           <int>
    ##  1 Corduroy                         Pearl Jam        1994
    ##  2 Grievance                        Pearl Jam        2000
    ##  3 Stupidmop                        Pearl Jam        1994
    ##  4 Present Tense                    Pearl Jam        1996
    ##  5 MFC                              Pearl Jam        1998
    ##  6 Lukin                            Pearl Jam        1996
    ##  7 It's Lulu                        The Boo Radleys  1995
    ##  8 Sparrow                          The Boo Radleys  1992
    ##  9 Martin_ Doom! It's Seven O'Clock The Boo Radleys  1995
    ## 10 Leaves And Sand                  The Boo Radleys  1993
    ## # ... with 12 more rows
…
### Challenge 3

What flow would you use to get the number of releases (albums) present in this two small datasets per year?

Reshaping
---------

Let's consider the bigger datagrame `artist_locations`

``` r
data("singer_locations")
singer_locations
```

    ## # A tibble: 10,100 x 14
    ##    track_id title song_id release artist_id artist_name  year duration
    ##    <chr>    <chr> <chr>   <chr>   <chr>     <chr>       <int>    <dbl>
    ##  1 TRWICRA~ The ~ SOSURT~ Even I~ ARACDPV1~ Motion Cit~  2007     170.
    ##  2 TRXJANY~ Lone~ SODESQ~ The Du~ ARYBUAO1~ Gene Chand~  2004     107.
    ##  3 TRIKPCA~ Here~ SOQUYQ~ Improm~ AR4111G1~ Paul Horn    1998     528.
    ##  4 TRYEATD~ Rego~ SOEZGR~ Still ~ ARQDZP31~ Ronnie Ear~  1995     695.
    ##  5 TRBYYXH~ Games SOPIOC~ Afro-H~ AR75GYU1~ Dorothy As~  1968     237.
    ##  6 TRKFFKR~ More~ SOHQSP~ Six Ya~ ARCENE01~ Barleyjuice  2006     193.
    ##  7 TRSSNNI~ out ~ SOIHOM~ Eradic~ AR88PFB1~ Vertigo An~  2003     240.
    ##  8 TRXSSXI~ Endl~ SODTXQ~ Sounds~ ARKQW4V1~ Wir Sind H~  2007     223.
    ##  9 TRDKANB~ I Am~ SOCZZE~ Live F~ ARIWB161~ Simon & Ga~  1966     178.
    ## 10 TRJQSXM~ A pe~ SOFJTI~ Save M~ ARP3U2W1~ Rabia Sorda  2006     260.
    ## # ... with 10,090 more rows, and 6 more variables:
    ## #   artist_hotttnesss <dbl>, artist_familiarity <dbl>, latitude <dbl>,
    ## #   longitude <dbl>, name <chr>, city <chr>

Let's suppose that we would like to do some plotting, showing the mean of `artist_hotttnesss`, `artist_familiarity` and `duration` for `year`. Let's select the appropriate part of the dataframe.

``` r
hfd_y <- singer_locations %>%
  select(year, artist_hotttnesss, artist_familiarity, duration)
```

You may have heard that ggplot prefers long dataframes, what does that mean? Let's see with an example. The dataframe we have is **wide**: that means that the observation presents the values of interest on different columns.

``` r
hfd_y
```

    ## # A tibble: 10,100 x 4
    ##     year artist_hotttnesss artist_familiarity duration
    ##    <int>             <dbl>              <dbl>    <dbl>
    ##  1  2007             0.641              0.823     170.
    ##  2  2004             0.394              0.570     107.
    ##  3  1998             0.431              0.504     528.
    ##  4  1995             0.362              0.477     695.
    ##  5  1968             0.411              0.530     237.
    ##  6  2006             0.376              0.541     193.
    ##  7  2003             0.181              0.274     240.
    ##  8  2007             0.474              0.698     223.
    ##  9  1966             0.510              0.796     178.
    ## 10  2006             0.420              0.593     260.
    ## # ... with 10,090 more rows
…
Gather:

``` r
hfd_y_unique_long <- hfd_y_unique %>%
  gather(key = "measure", value = "Value", artist_hotttnesss:duration)
```

and then spread

``` r
hfd_y_unique_long %>%
  spread(measure, Value)
```

    ## # A tibble: 10,100 x 5
    ##    song_id             year artist_familiarity artist_hotttnesss duration
    ##    <chr>              <int>              <dbl>             <dbl>    <dbl>
    ##  1 SOAACEN12A8C13AC90  2005             0.775              0.482     357.
    ##  2 SOAAEOE12A67021AA2  2002             0.590              0.384     213.
    ##  3 SOAAEUS12AB0184906  1990             0.447              0.427     243.
    ##  4 SOAAHHZ12AB0181950  2005             0.0581             0         254.
    ##  5 SOAAIJG12AAA15D821  2008             0.722              0.486     400.
    ##  6 SOAAMSA12AB0185275  2008             0.624              0.437     208.
    ##  7 SOAAPDT12A6D4F9957  2002             0.502              0.342     277.
    ##  8 SOAAQSY12A58A7CBFF  1990             0.522              0.366     220.
    ##  9 SOAARXN12D021B0F39  2007             0.823              0.576     299.
    ## 10 SOAASND12A58A7A70B  2001             0.648              0.431     226.
    ## # ... with 10,090 more rows
